%YAML 1.1
%TAG !u! tag:unity3d.com,2011:
--- !u!221 &22100000
AnimatorOverrideController:
  m_ObjectHideFlags: 0
  m_PrefabParentObject: {fileID: 0}
  m_PrefabInternal: {fileID: 0}
  m_Name: MemoryCubeAnimator
  m_Controller: {fileID: 9100000, guid: f2a4c71bb91a140c79b4369c7b137ec9, type: 2}
  m_Clips:
  - m_OriginalClip: {fileID: 7400000, guid: b6aeed952cafc4481ba42952bd8d7ad8, type: 2}
    m_OverrideClip: {fileID: 7400000, guid: 47b8707b5f0687444be67dde6988527e, type: 2}
  - m_OriginalClip: {fileID: 7400000, guid: c80f8082b0f064d3aab714ced3fa3009, type: 2}
    m_OverrideClip: {fileID: 7400000, guid: ae3c3b4bfd138a04b91cdc51065bde3c, type: 2}
