[{"id":1, "name":"testSkill1", "icon":"default", "description":"default skill", "maxlvl":5, "category":0, "prerequisite":0, "skilltype":0, "effect":"health%+:10", "target":0, "range":1.0, "animation":"defaultAnimation", "cost":10, "casttime":2.5, "hitFrames":"1"},
 {"id":2, "name":"testSkill2", "icon":"default", "description":"default skill", "maxlvl":5, "category":0, "prerequisite":0, "skilltype":0, "effect":"health%+:10", "target":0, "range":1.0, "animation":"defaultAnimation", "cost":10, "casttime":2.5, "hitFrames":"1"},
 {"id":3, "name":"testSkill3", "icon":"default", "description":"default skill", "maxlvl":5, "category":0, "prerequisite":0, "skilltype":0, "effect":"health%+:10", "target":0, "range":1.0, "animation":"defaultAnimation", "cost":10, "casttime":2.5, "hitFrames":"1"},
 {"id":4, "name":"testSkill4", "icon":"default", "description":"default skill", "maxlvl":5, "category":0, "prerequisite":0, "skilltype":0, "effect":"health%+:10", "target":0, "range":1.0, "animation":"defaultAnimation", "cost":10, "casttime":2.5, "hitFrames":"1"},
 {"id":5, "name":"testSkill5", "icon":"default", "description":"default skill", "maxlvl":5, "category":0, "prerequisite":0, "skilltype":0, "effect":"health%+:10", "target":0, "range":1.0, "animation":"defaultAnimation", "cost":10, "casttime":2.5, "hitFrames":"1"},
 {"id":6, "name":"testSkill6", "icon":"default", "description":"default skill", "maxlvl":5, "category":0, "prerequisite":0, "skilltype":0, "effect":"health%+:10", "target":0, "range":1.0, "animation":"defaultAnimation", "cost":10, "casttime":2.5, "hitFrames":"1"},
 {"id":7, "name":"testSkill7", "icon":"default", "description":"default skill", "maxlvl":5, "category":0, "prerequisite":0, "skilltype":0, "effect":"health%+:10", "target":0, "range":1.0, "animation":"defaultAnimation", "cost":10, "casttime":2.5, "hitFrames":"1"},
 {"id":8, "name":"testSkill8", "icon":"default", "description":"default skill", "maxlvl":5, "category":0, "prerequisite":0, "skilltype":0, "effect":"health%+:10", "target":0, "range":1.0, "animation":"defaultAnimation", "cost":10, "casttime":2.5, "hitFrames":"1"},
 {"id":9, "name":"testSkill9", "icon":"default", "description":"default skill", "maxlvl":5, "category":0, "prerequisite":0, "skilltype":0, "effect":"health%+:10", "target":0, "range":1.0, "animation":"defaultAnimation", "cost":10, "casttime":2.5, "hitFrames":"1"},
 {"id":10, "name":"testSkill10", "icon":"default", "description":"default skill", "maxlvl":5, "category":0, "prerequisite":0, "skilltype":0, "effect":"health%+:10", "target":0, "range":1.0, "animation":"defaultAnimation", "cost":10, "casttime":2.5, "hitFrames":"1"},
 {"id":11, "name":"testSkill11", "icon":"default", "description":"default skill", "maxlvl":5, "category":0, "prerequisite":0, "skilltype":0, "effect":"health%+:10", "target":0, "range":1.0, "animation":"defaultAnimation", "cost":10, "casttime":2.5, "hitFrames":"1"},
 {"id":12, "name":"testSkill12", "icon":"default", "description":"default skill", "maxlvl":5, "category":0, "prerequisite":0, "skilltype":0, "effect":"health%+:10", "target":0, "range":1.0, "animation":"defaultAnimation", "cost":10, "casttime":2.5, "hitFrames":"1"},
 {"id":13, "name":"testSkill13", "icon":"default", "description":"default skill", "maxlvl":5, "category":0, "prerequisite":0, "skilltype":0, "effect":"health%+:10", "target":0, "range":1.0, "animation":"defaultAnimation", "cost":10, "casttime":2.5, "hitFrames":"1"},
 {"id":14, "name":"Ground Smash", "icon":"groundsmash", "description":"Smash the ground and damage surrounding enemies.", "maxlvl":5, "category":0, "prerequisite":0, "skilltype":1, "effect":"aoe:5$5$2", "target":0, "range":1.0, "animation":"Ability00", "cost":10, "casttime":0.0, "hitFrames":"0.5_1"},
 {"id":15, "name":"Fire Magic", "icon":"fireball", "description":"Unlock fire magic.", "maxlvl":5, "category":0, "prerequisite":0, "skilltype":0, "effect":"unlock:39", "target":0, "range":1.0, "animation":"defaultAnimation", "cost":10, "casttime":2.5, "hitFrames":"1"},
 {"id":16, "name":"testSkill16", "icon":"default", "description":"default skill", "maxlvl":5, "category":0, "prerequisite":0, "skilltype":0, "effect":"health%+:10", "target":0, "range":1.0, "animation":"defaultAnimation", "cost":10, "casttime":2.5, "hitFrames":"1"},
 {"id":17, "name":"testSkill17", "icon":"default", "description":"default skill", "maxlvl":5, "category":0, "prerequisite":0, "skilltype":0, "effect":"health%+:10", "target":0, "range":1.0, "animation":"defaultAnimation", "cost":10, "casttime":2.5, "hitFrames":"1"},
 {"id":18, "name":"testSkill18", "icon":"default", "description":"default skill", "maxlvl":5, "category":0, "prerequisite":0, "skilltype":0, "effect":"health%+:10", "target":0, "range":1.0, "animation":"defaultAnimation", "cost":10, "casttime":2.5, "hitFrames":"1"},
 {"id":19, "name":"testSkill19", "icon":"default", "description":"default skill", "maxlvl":5, "category":0, "prerequisite":0, "skilltype":0, "effect":"health%+:10", "target":0, "range":1.0, "animation":"defaultAnimation", "cost":10, "casttime":2.5, "hitFrames":"1"},
 {"id":20, "name":"testSkill20", "icon":"default", "description":"default skill", "maxlvl":5, "category":0, "prerequisite":0, "skilltype":0, "effect":"health%+:10", "target":0, "range":1.0, "animation":"defaultAnimation", "cost":10, "casttime":2.5, "hitFrames":"1"},
 {"id":21, "name":"testSkill21", "icon":"default", "description":"default skill", "maxlvl":5, "category":0, "prerequisite":0, "skilltype":0, "effect":"health%+:10", "target":0, "range":1.0, "animation":"defaultAnimation", "cost":10, "casttime":2.5, "hitFrames":"1"},
 {"id":22, "name":"testSkill22", "icon":"default", "description":"default skill", "maxlvl":5, "category":0, "prerequisite":0, "skilltype":0, "effect":"health%+:10", "target":0, "range":1.0, "animation":"defaultAnimation", "cost":10, "casttime":2.5, "hitFrames":"1"},
 {"id":23, "name":"testSkill23", "icon":"default", "description":"default skill", "maxlvl":5, "category":0, "prerequisite":0, "skilltype":0, "effect":"health%+:10", "target":0, "range":1.0, "animation":"defaultAnimation", "cost":10, "casttime":2.5, "hitFrames":"1"},
 {"id":24, "name":"testSkill24", "icon":"default", "description":"default skill", "maxlvl":5, "category":0, "prerequisite":0, "skilltype":0, "effect":"health%+:10", "target":0, "range":1.0, "animation":"defaultAnimation", "cost":10, "casttime":2.5, "hitFrames":"1"},
 {"id":25, "name":"testSkill25", "icon":"default", "description":"default skill", "maxlvl":5, "category":0, "prerequisite":0, "skilltype":0, "effect":"health%+:10", "target":0, "range":1.0, "animation":"defaultAnimation", "cost":10, "casttime":2.5, "hitFrames":"1"},
 {"id":26, "name":"testSkill26", "icon":"default", "description":"default skill", "maxlvl":5, "category":0, "prerequisite":0, "skilltype":0, "effect":"health%+:10", "target":0, "range":1.0, "animation":"defaultAnimation", "cost":10, "casttime":2.5, "hitFrames":"1"},
 {"id":27, "name":"testSkill27", "icon":"default", "description":"default skill", "maxlvl":5, "category":0, "prerequisite":0, "skilltype":0, "effect":"health%+:10", "target":0, "range":1.0, "animation":"defaultAnimation", "cost":10, "casttime":2.5, "hitFrames":"1"},
 {"id":28, "name":"testSkill28", "icon":"default", "description":"default skill", "maxlvl":5, "category":0, "prerequisite":0, "skilltype":0, "effect":"health%+:10", "target":0, "range":1.0, "animation":"defaultAnimation", "cost":10, "casttime":2.5, "hitFrames":"1"},
 {"id":29, "name":"testSkill29", "icon":"default", "description":"default skill", "maxlvl":5, "category":0, "prerequisite":0, "skilltype":0, "effect":"health%+:10", "target":0, "range":1.0, "animation":"defaultAnimation", "cost":10, "casttime":2.5, "hitFrames":"1"},
 {"id":30, "name":"testSkill30", "icon":"default", "description":"default skill", "maxlvl":5, "category":0, "prerequisite":0, "skilltype":0, "effect":"health%+:10", "target":0, "range":1.0, "animation":"defaultAnimation", "cost":10, "casttime":2.5, "hitFrames":"1"},
 {"id":31, "name":"testSkill31", "icon":"default", "description":"default skill", "maxlvl":5, "category":0, "prerequisite":0, "skilltype":0, "effect":"health%+:10", "target":0, "range":1.0, "animation":"defaultAnimation", "cost":10, "casttime":2.5, "hitFrames":"1"},
 {"id":32, "name":"testSkill32", "icon":"default", "description":"default skill", "maxlvl":5, "category":0, "prerequisite":0, "skilltype":0, "effect":"health%+:10", "target":0, "range":1.0, "animation":"defaultAnimation", "cost":10, "casttime":2.5, "hitFrames":"1"},
 {"id":33, "name":"testSkill33", "icon":"default", "description":"default skill", "maxlvl":5, "category":0, "prerequisite":0, "skilltype":0, "effect":"health%+:10", "target":0, "range":1.0, "animation":"defaultAnimation", "cost":10, "casttime":2.5, "hitFrames":"1"},
 {"id":34, "name":"testSkill34", "icon":"default", "description":"default skill", "maxlvl":5, "category":0, "prerequisite":0, "skilltype":0, "effect":"health%+:10", "target":0, "range":1.0, "animation":"defaultAnimation", "cost":10, "casttime":2.5, "hitFrames":"1"},
 {"id":35, "name":"testSkill35", "icon":"default", "description":"default skill", "maxlvl":5, "category":0, "prerequisite":0, "skilltype":0, "effect":"health%+:10", "target":0, "range":1.0, "animation":"defaultAnimation", "cost":10, "casttime":2.5, "hitFrames":"1"},
 {"id":36, "name":"testSkill36", "icon":"default", "description":"default skill", "maxlvl":5, "category":0, "prerequisite":0, "skilltype":0, "effect":"health%+:10", "target":0, "range":1.0, "animation":"defaultAnimation", "cost":10, "casttime":2.5, "hitFrames":"1"},
 {"id":37, "name":"testSkill37", "icon":"default", "description":"default skill", "maxlvl":5, "category":0, "prerequisite":0, "skilltype":0, "effect":"health%+:10", "target":0, "range":1.0, "animation":"defaultAnimation", "cost":10, "casttime":2.5, "hitFrames":"1"},
 {"id":38, "name":"testSkill38", "icon":"default", "description":"default skill", "maxlvl":5, "category":0, "prerequisite":0, "skilltype":0, "effect":"health%+:10", "target":0, "range":1.0, "animation":"defaultAnimation", "cost":10, "casttime":2.5, "hitFrames":"1"},
 {"id":39, "name":"testSkill39", "icon":"default", "description":"default skill", "maxlvl":5, "category":0, "prerequisite":0, "skilltype":0, "effect":"health%+:10", "target":0, "range":1.0, "animation":"defaultAnimation", "cost":10, "casttime":2.5, "hitFrames":"1"},
 {"id":40, "name":"Fire", "icon":"fireball", "description":"Summon fireball directed at the target.", "maxlvl":5, "category":0, "prerequisite":0, "skilltype":1, "effect":"magic:fire$2", "target":5, "range":5.0, "animation":"Magic", "cost":10, "casttime":2.5, "hitFrames":"attack"}]