%YAML 1.1
%TAG !u! tag:unity3d.com,2011:
--- !u!78 &1
TagManager:
  serializedVersion: 2
  tags: []
  layers:
  - Default
  - TransparentFX
  - Ignore Raycast
  - 
  - Water
  - UI
  - 
  - 
  - Unit
  - Tiles
  - Obstacles
  - 
  - 
  - 
  - 
  - 
  - 
  - 
  - 
  - 
  - 
  - 
  - 
  - 
  - 
  - 
  - 
  - 
  - 
  - 
  - 
  - 
  m_SortingLayers:
  - name: Default
    uniqueID: 0
    locked: 0
  - name: ShadowRender
    uniqueID: 669513235
    locked: 0
  - name: 
    uniqueID: 272706543
    locked: 0
  - name: Unit
    uniqueID: 1238615133
    locked: 0
  - name: UnitRender
    uniqueID: 3248609459
    locked: 0
  - name: Overlay
    uniqueID: 2297285955
    locked: 0
